…
-   Create `sales_index`:

    ```{r}
    sales_index <- tibble::tribble(
       ~type, ~Jan, ~Feb, ~Mar, ~Apr, ~May, ~Jun, ~Jul, ~Aug, ~Sep, ~Oct, ~Nov, ~Dec,
      "in store",  146,  151,  236,  268,  181,  246,  217,  292,  249,  286,  211,  240,
    "online",  264,  191,  104,  284,  109,  103,  175,  138,  148,  104,  111,  229
    )
    sales_index
    ```

    Reshape `sales_index` into the following form:

        # A tibble: 24 × 3
           type     name  value
           <chr>    <chr> <dbl>
         1 in store Jan     146
         2 in store Feb     151
         3 in store Mar     236
         4 in store Apr     268
         5 in store May     181
         6 in store Jun     246
         7 in store Jul     217
         8 in store Aug     292
         9 in store Sep     249
        10 in store Oct     286
        # … with 14 more rows
…
